{
  "free": [
    {
      "title": "Use my Associates Link",
      "description": "Click my link before checking out on Amazon to support me for free",
      "href": "https://www.amazon.com/?tag=bytepen08-20",
      "image": "Amazon"
    },
    {
      "title": "Watch my Videos",
      "description": "Watch, Like, and Subscribe on my YouTube Channel",
      "href": "https://www.youtube.com/c/bytepenstudios",
      "image": "YouTube"
    },
    {
      "title": "Share on Facebook",
      "description": "Tell your friends about BytePen Studios on Facebook",
      "href": "https://www.facebook.com/sharer/sharer.php?u=https%3A//www.BytePen.com",
      "image": "Facebook"
    },
    {
      "title": "Share on Twitter",
      "description": "Tell your friends about BytePen Studios on Twitter",
      "href": "https://twitter.com/home?status=Tired%20of%20YouTube%20videos%20that%20take%20forever%20to%20get%20to%20the%20point?%20Check%20out%20what%20BytePen%20Studios%20is%20up%20to%20with%20The%20Wilson%20Minute!%20https%3A//www.youtube.com/c/bytepenstudios",
      "image": "Twitter"
    },
    {
      "title": "Follow on Instagram",
      "description": "Check out and follow me on Instagram",
      "href": "https://www.instagram.com/bytepen/",
      "image": "Instagram"
    }
  ],
  "paid": [
    {
      "title": "Support on Ko-Fi",
      "description": "Buy me a single cup of coffee ($3)",
      "href": "https://www.ko-fi.com/BytePen",
      "image": "KoFi"
    },
    {
      "title": "Support on Patreon",
      "description": "Donate once or setup a monthly contribution of your choice",
      "href": "https://www.patreon.com/bytepen",
      "image": "Patreon"
    }
  ]
}