{
  "items": [
    {
      "title": "Home",
      "href": "/"
    },
    {
      "title": "Tutorials",
      "href": "/tutorials"
    },
    {
      "title": "Projects",
      "href": "/projects"
    },
    {
      "title": "Support Me",
      "href": "/support-me"
    }
  ]
}